…
Convert example data into discrete index space.

index <- function(x, grid) map_int(x, ~ which.min(abs(.x - grid)))
## repeats each series for each static model
ex <- examples %>%
  mutate(biomass = index(scaled_biomass, states),          
         catch = index(scaled_catch, actions))  %>% 
  left_join(policy_pars) %>% left_join(pars) %>%
  ungroup() 
ex

# A tibble: 69 x 18
   scien… commo… stock… arean… coun…  year    SSB     TC scal… scal… biom…
   <chr>  <chr>  <chr>  <chr>  <chr> <dbl>  <dbl>  <dbl> <dbl> <dbl> <int>
 1 Merlu… Argen… ARGHA… North… Arge…  1986 481050 196008 0.407 1.00     38
 2 Merlu… Argen… ARGHA… North… Arge…  1987 378022 194344 0.404 0.786    30
 3 Merlu… Argen… ARGHA… North… Arge…  1988 203903 117910 0.245 0.424    17
 4 Merlu… Argen… ARGHA… North… Arge…  1989 236340 146438 0.304 0.491    19
 5 Merlu… Argen… ARGHA… North… Arge…  1990 255933 135716 0.282 0.532    21
 6 Merlu… Argen… ARGHA… North… Arge…  1991 280975 221201 0.460 0.584    23
 7 Merlu… Argen… ARGHA… North… Arge…  1992 225719 202013 0.420 0.469    18
 8 Merlu… Argen… ARGHA… North… Arge…  1993 158098 152072 0.316 0.329    13
 9 Merlu… Argen… ARGHA… North… Arge…  1994 166932 140226 0.291 0.347    14
10 Merlu… Argen… ARGHA… North… Arge…  1995 206742 186886 0.388 0.430    17
# ... with 59 more rows, and 7 more variables: catch <int>, S_star <dbl>,
#   F_MSY <dbl>, F_PGY <dbl>, N <dbl>, r <dbl>, K <dbl>
…
